{
    "author": ["portalz"],
    "install_msg": "ttwelcome is now installed",
    "name": "ttwelcome",
    "disabled": false,
    "short": "welcome!",
    "description": "a welcome module for TT that watches for people to get the verified role",
    "tags": ["welcome"],
    "min_bot_version": "3.1.1"
}
